-- Merging decision tree log ---
manifest
ADDED from C:\Users\rbyrne\Android\streams\maps-utils\AndroidManifest.xml:2:1-11:12
INJECTED from C:\Users\rbyrne\Android\streams\maps-utils\AndroidManifest.xml:2:1-11:12
INJECTED from C:\Users\rbyrne\Android\streams\maps-utils\AndroidManifest.xml:2:1-11:12
	package
		ADDED from C:\Users\rbyrne\Android\streams\maps-utils\AndroidManifest.xml:3:11-44
		INJECTED from C:\Users\rbyrne\Android\streams\maps-utils\AndroidManifest.xml
		INJECTED from C:\Users\rbyrne\Android\streams\maps-utils\AndroidManifest.xml
	xmlns:android
		ADDED from C:\Users\rbyrne\Android\streams\maps-utils\AndroidManifest.xml:2:11-69
application
ADDED from C:\Users\rbyrne\Android\streams\maps-utils\AndroidManifest.xml:5:5-10:19
meta-data#com.google.android.gms.version
ADDED from C:\Users\rbyrne\Android\streams\maps-utils\AndroidManifest.xml:6:9-8:73
	android:value
		ADDED from C:\Users\rbyrne\Android\streams\maps-utils\AndroidManifest.xml:8:17-70
	android:name
		ADDED from C:\Users\rbyrne\Android\streams\maps-utils\AndroidManifest.xml:7:17-62
uses-sdk
INJECTED from C:\Users\rbyrne\Android\streams\maps-utils\AndroidManifest.xml reason: use-sdk injection requested
INJECTED from C:\Users\rbyrne\Android\streams\maps-utils\AndroidManifest.xml
INJECTED from C:\Users\rbyrne\Android\streams\maps-utils\AndroidManifest.xml
	android:minSdkVersion
		INJECTED from C:\Users\rbyrne\Android\streams\maps-utils\AndroidManifest.xml
		ADDED from C:\Users\rbyrne\Android\streams\maps-utils\AndroidManifest.xml
		INJECTED from C:\Users\rbyrne\Android\streams\maps-utils\AndroidManifest.xml
